%YAML 1.1
%TAG !u! tag:unity3d.com,2011:
--- !u!74 &7400000
AnimationClip:
  m_ObjectHideFlags: 0
  m_CorrespondingSourceObject: {fileID: 0}
  m_PrefabInstance: {fileID: 0}
  m_PrefabAsset: {fileID: 0}
  m_Name: Attack4
  serializedVersion: 6
  m_Legacy: 0
  m_Compressed: 0
  m_UseHighQualityCurve: 1
  m_RotationCurves: []
  m_CompressedRotationCurves: []
  m_EulerCurves: []
  m_PositionCurves: []
  m_ScaleCurves: []
  m_FloatCurves: []
  m_PPtrCurves:
  - curve:
    - time: 0
      value: {fileID: 21300000, guid: e144ecdd23bf5c84782793e791e86f24, type: 3}
    - time: 0.083333336
      value: {fileID: 21300000, guid: 280995d512dea1d47a5121edc16d8aa2, type: 3}
    - time: 0.16666667
      value: {fileID: 21300000, guid: c3e784d4fa3247a468d003df23915444, type: 3}
    - time: 0.25
      value: {fileID: 21300000, guid: 7e24ce2a9a417be4b8a76299ab9f40e7, type: 3}
    - time: 0.33333334
      value: {fileID: 21300000, guid: e86143aac606d804c94033ac10ad8e58, type: 3}
    - time: 0.41666666
      value: {fileID: 21300000, guid: 5cc85b824db3b1042a9664f93975868d, type: 3}
    - time: 0.5
      value: {fileID: 21300000, guid: 687e79d208a1257438f74a99a9510a2a, type: 3}
    - time: 0.5833333
      value: {fileID: 21300000, guid: abc9b5fe4c77b6a40ba6cabc1e1476e3, type: 3}
    attribute: m_Sprite
    path: 
    classID: 212
    script: {fileID: 0}
  m_SampleRate: 60
  m_WrapMode: 0
  m_Bounds:
    m_Center: {x: 0, y: 0, z: 0}
    m_Extent: {x: 0, y: 0, z: 0}
  m_ClipBindingConstant:
    genericBindings:
    - serializedVersion: 2
      path: 0
      attribute: 0
      script: {fileID: 0}
      typeID: 212
      customType: 23
      isPPtrCurve: 1
    pptrCurveMapping:
    - {fileID: 21300000, guid: e144ecdd23bf5c84782793e791e86f24, type: 3}
    - {fileID: 21300000, guid: 280995d512dea1d47a5121edc16d8aa2, type: 3}
    - {fileID: 21300000, guid: c3e784d4fa3247a468d003df23915444, type: 3}
    - {fileID: 21300000, guid: 7e24ce2a9a417be4b8a76299ab9f40e7, type: 3}
    - {fileID: 21300000, guid: e86143aac606d804c94033ac10ad8e58, type: 3}
    - {fileID: 21300000, guid: 5cc85b824db3b1042a9664f93975868d, type: 3}
    - {fileID: 21300000, guid: 687e79d208a1257438f74a99a9510a2a, type: 3}
    - {fileID: 21300000, guid: abc9b5fe4c77b6a40ba6cabc1e1476e3, type: 3}
  m_AnimationClipSettings:
    serializedVersion: 2
    m_AdditiveReferencePoseClip: {fileID: 0}
    m_AdditiveReferencePoseTime: 0
    m_StartTime: 0
    m_StopTime: 0.59999996
    m_OrientationOffsetY: 0
    m_Level: 0
    m_CycleOffset: 0
    m_HasAdditiveReferencePose: 0
    m_LoopTime: 1
    m_LoopBlend: 0
    m_LoopBlendOrientation: 0
    m_LoopBlendPositionY: 0
    m_LoopBlendPositionXZ: 0
    m_KeepOriginalOrientation: 0
    m_KeepOriginalPositionY: 1
    m_KeepOriginalPositionXZ: 0
    m_HeightFromFeet: 0
    m_Mirror: 0
  m_EditorCurves: []
  m_EulerEditorCurves: []
  m_HasGenericRootTransform: 0
  m_HasMotionFloatCurves: 0
  m_Events: []
