%YAML 1.1
%TAG !u! tag:unity3d.com,2011:
--- !u!1045 &1
EditorBuildSettings:
  m_ObjectHideFlags: 0
  serializedVersion: 2
  m_Scenes:
  - enabled: 1
    path: Assets/Scenes/MainEntry.unity
    guid: 357c02bab056c1646b6f4c90dcecd890
  - enabled: 1
    path: Assets/Scenes/GameScene.unity
    guid: 6b4ce35871c2dd4489051ac8d1636a9c
  - enabled: 0
    path: Assets/Scenes/SampleScene.unity
    guid: 2cda990e2423bbf4892e6590ba056729
  m_configObjects: {}
